…
``` r
library(here)
```

    ## here() starts at E:/rob/Documents/research/projects/happygitwithr/packages-report

``` r
ipt <- installed.packages() %>%
  as_tibble()
ipt
```

    ## # A tibble: 292 x 16
    ##    Package LibPath Version Priority Depends Imports LinkingTo Suggests
    ##    <chr>   <chr>   <chr>   <chr>    <chr>   <chr>   <chr>     <chr>   
    ##  1 abind   C:/Use~ 1.4-5   <NA>     R (>= ~ method~ <NA>      <NA>    
    ##  2 acepack C:/Use~ 1.4.1   <NA>     <NA>    <NA>    <NA>      testthat
    ##  3 akima   C:/Use~ 0.6-2   <NA>     R (>= ~ sp      <NA>      <NA>    
    ##  4 assert~ C:/Use~ 0.2.0   <NA>     <NA>    tools   <NA>      testthat
    ##  5 babyna~ C:/Use~ 0.3.0   <NA>     R (>= ~ tibble  <NA>      <NA>    
    ##  6 backpo~ C:/Use~ 1.1.2   <NA>     R (>= ~ utils   <NA>      <NA>    
    ##  7 base64~ C:/Use~ 0.1-3   <NA>     R (>= ~ <NA>    <NA>      <NA>    
    ##  8 BB      C:/Use~ 2014.1~ <NA>     R (>= ~ stats,~ <NA>      setRNG,~
    ##  9 BH      C:/Use~ 1.66.0~ <NA>     <NA>    <NA>    <NA>      <NA>    
    ## 10 bindr   C:/Use~ 0.1.1   <NA>     <NA>    <NA>    <NA>      testthat
    ## # ... with 282 more rows, and 8 more variables: Enhances <chr>,
    ## #   License <chr>, License_is_FOSS <chr>, License_restricts_use <chr>,
    ## #   OS_type <chr>, MD5sum <chr>, NeedsCompilation <chr>, Built <chr>
…
